{
  "app_id": 123,
  "installation_id": 12434234,
  "parameters": {
    "atendimento_b2w": "360042935891",
    "codigo_entrega": "360042935231",
    "codigo_transporte": "360042935752",
    "cpf_cliente": "360018310171",
    "deliveryId": "360042935251",
    "itens_pedido": "360042935211",
    "link_tracking": "360042935792",
    "nome_cliente": "360042935772",
    "status_pedido": "360042935191",
    "tipo_transporte": "360042935732",
    "chat_customerbox": "360042935271",
    "b2w_url_detalhes": "https://www.b2wmarketplace.com.br/v3/sac/atendimento/detalhe",
    "customerbox_send_message": "87cd3e7a-eca7-4a63-adc2-ac4380eed370",
    "customerbox_end_chat": "6a41bd84-56a2-42a7-95bf-f5dfbae307f9"
  }
}
